{
    "title": "Alex's links",
    "body-style": {
        "background-color": "#FFFFFF",
        "border-color": "#000000",
        "border-width": "3px"
    },
    "button-style": {
        "background-color": "#FFFFFF",
        "border-color": "#000000",
        "border-width": "3px",
        "border-radius": "10px",
    },
    "links": [
        {
            "title": "📖 Website",
            "url": "https://tallredman.xyz",
        },
        {
            "title": "🤓 Niche Studio",
            "url": "https://nichestud.io",
        },
        {
            "title": "🔔 World's Most Pathetic Elvator Chime",
            "url": "https://www.youtube.com/watch?v=bQtmm_lpUKI&list=",
        },
        
    ]
}